Intro to Data Science Using R
…
log() log2()
log10()
Compute the logarithm with a natural base, base 2 or
base 10.
log10(body_mass)

The data set dominick_oatmeal_ contains the variables
profit and move.

profit : profit per unit

move : number of units sold

# A tibble: 1,000 × 4
   week       product              profit  move
   <date>     <chr>                 <dbl> <int>
 1 1991-04-07 COCO WHEATS            0.31     1
 2 1991-04-07 CREAM OF WHEAT INSTA   0.25     2
 3 1991-04-07 CREAM OF WHEAT QUICK   0.26     4
 4 1991-04-07 INST CRM OF WHTVARI    0.21     2
 5 1991-04-07 KRETCHMER HONEY WHT    0.16     4
 6 1991-04-07 KRETSCHMER WHEAT GER   0.18     8
 7 1991-04-07 MIX N EAT BROWN SUG    0.19     1
 8 1991-04-07 MIX N EAT CREAM OF W   0.25     2
 9 1991-04-07 NABISCO CREAM OF RIC   0.19     3
10 1991-04-07 NABISCO CREAM OF WHT   0.22     2
# … with 990 more rows
…
